<mxfile host="65bd71144e">
    <diagram id="I6ko3X_G8MZ7sUw2pyTK" name="Page-1">
        <mxGraphModel dx="678" dy="1037" grid="1" gridSize="10" guides="1" tooltips="1" connect="1" arrows="0" fold="1" page="1" pageScale="1" pageWidth="850" pageHeight="1100" math="0" shadow="0">
            <root>
                <mxCell id="0"/>
                <mxCell id="1" parent="0"/>
                <mxCell id="314" value="Normalise email" style="rounded=0;whiteSpace=wrap;html=1;fontSize=12;fontFamily=Verdana;fontStyle=1;strokeWidth=2;fillColor=#76608a;fontColor=#ffffff;strokeColor=#432D57;" parent="1" vertex="1">
                    <mxGeometry x="20" y="200" width="120" height="60" as="geometry"/>
                </mxCell>
                <mxCell id="316" value="raw_email -&amp;gt; normalised_email" style="rounded=0;whiteSpace=wrap;html=1;fontSize=11;fontFamily=Verdana;fontStyle=2;strokeWidth=2;fillColor=#76608a;fontColor=#ffffff;strokeColor=#432D57;" parent="1" vertex="1">
                    <mxGeometry x="20" y="170" width="120" height="30" as="geometry"/>
                </mxCell>
                <mxCell id="319" value="Ok" style="rounded=0;whiteSpace=wrap;html=1;fontSize=12;fontFamily=Verdana;fontStyle=1;strokeWidth=2;fillColor=#008a00;fontColor=#ffffff;strokeColor=#005700;" parent="1" vertex="1">
                    <mxGeometry x="780" y="200" width="60" height="60" as="geometry"/>
                </mxCell>
                <mxCell id="320" value="" style="edgeStyle=orthogonalEdgeStyle;shape=connector;rounded=1;html=1;labelBackgroundColor=default;fontFamily=Helvetica;fontSize=12;fontColor=default;endArrow=classic;strokeWidth=1;entryX=0;entryY=0.5;entryDx=0;entryDy=0;exitX=1;exitY=0.5;exitDx=0;exitDy=0;startArrow=none;" parent="1" source="333" target="319" edge="1">
                    <mxGeometry relative="1" as="geometry">
                        <mxPoint x="1000" y="-50" as="sourcePoint"/>
                        <mxPoint x="890" y="-30" as="targetPoint"/>
                    </mxGeometry>
                </mxCell>
                <mxCell id="321" value="" style="edgeStyle=orthogonalEdgeStyle;shape=connector;rounded=1;html=1;labelBackgroundColor=default;fontFamily=Helvetica;fontSize=12;fontColor=default;endArrow=classic;strokeWidth=1;exitX=1;exitY=0.5;exitDx=0;exitDy=0;entryX=0;entryY=0.5;entryDx=0;entryDy=0;startArrow=none;" parent="1" source="314" target="329" edge="1">
                    <mxGeometry relative="1" as="geometry">
                        <mxPoint x="290" y="250" as="sourcePoint"/>
                        <mxPoint x="160" y="230" as="targetPoint"/>
                    </mxGeometry>
                </mxCell>
                <mxCell id="328" value="&lt;font style=&quot;font-size: 11px&quot;&gt;Note that checking and normalising emails cannot really be split in two separate functions. Normalising an email requires an MX DNS lookup to find the underlying domain provider, depending on which trimming rules change (e.g., allowing subparts in the host, or meaningful dots, etc.)&lt;/font&gt;" style="rounded=0;whiteSpace=wrap;html=1;fontSize=11;fontFamily=Verdana;align=left;verticalAlign=top;dashed=1;spacingLeft=4;spacing=2;spacingTop=0;labelPosition=center;verticalLabelPosition=middle;" parent="1" vertex="1">
                    <mxGeometry x="20" y="20" width="800" height="60" as="geometry"/>
                </mxCell>
                <mxCell id="340" style="edgeStyle=orthogonalEdgeStyle;html=1;exitX=1;exitY=0.5;exitDx=0;exitDy=0;entryX=0;entryY=0.5;entryDx=0;entryDy=0;" parent="1" source="329" target="330" edge="1">
                    <mxGeometry relative="1" as="geometry"/>
                </mxCell>
                <mxCell id="341" style="edgeStyle=orthogonalEdgeStyle;html=1;exitX=1;exitY=0.5;exitDx=0;exitDy=0;entryX=0;entryY=0.5;entryDx=0;entryDy=0;" parent="1" source="329" target="334" edge="1">
                    <mxGeometry relative="1" as="geometry"/>
                </mxCell>
                <mxCell id="329" value="Split local and domain parts" style="rounded=0;whiteSpace=wrap;html=1;fontSize=12;fontFamily=Verdana;fontStyle=1;strokeWidth=2;" parent="1" vertex="1">
                    <mxGeometry x="160" y="200" width="120" height="60" as="geometry"/>
                </mxCell>
                <mxCell id="337" style="edgeStyle=orthogonalEdgeStyle;html=1;exitX=1;exitY=0.5;exitDx=0;exitDy=0;entryX=0;entryY=0.5;entryDx=0;entryDy=0;" parent="1" source="330" target="336" edge="1">
                    <mxGeometry relative="1" as="geometry"/>
                </mxCell>
                <mxCell id="338" style="edgeStyle=orthogonalEdgeStyle;html=1;exitX=1;exitY=0.5;exitDx=0;exitDy=0;entryX=0;entryY=0.5;entryDx=0;entryDy=0;" parent="1" source="330" target="331" edge="1">
                    <mxGeometry relative="1" as="geometry"/>
                </mxCell>
                <mxCell id="330" value="Get MX infos from DNS" style="rounded=0;whiteSpace=wrap;html=1;fontSize=12;fontFamily=Verdana;fontStyle=1;strokeWidth=2;" parent="1" vertex="1">
                    <mxGeometry x="320" y="200" width="120" height="60" as="geometry"/>
                </mxCell>
                <mxCell id="339" style="edgeStyle=orthogonalEdgeStyle;html=1;exitX=1;exitY=0.5;exitDx=0;exitDy=0;entryX=0;entryY=0.5;entryDx=0;entryDy=0;" parent="1" source="331" target="333" edge="1">
                    <mxGeometry relative="1" as="geometry"/>
                </mxCell>
                <mxCell id="343" style="edgeStyle=orthogonalEdgeStyle;html=1;exitX=1;exitY=0.5;exitDx=0;exitDy=0;entryX=0;entryY=0.5;entryDx=0;entryDy=0;" parent="1" source="331" target="342" edge="1">
                    <mxGeometry relative="1" as="geometry"/>
                </mxCell>
                <mxCell id="331" value="Get preferred MX host from MX infos" style="rounded=0;whiteSpace=wrap;html=1;fontSize=12;fontFamily=Verdana;fontStyle=1;strokeWidth=2;" parent="1" vertex="1">
                    <mxGeometry x="480" y="200" width="120" height="60" as="geometry"/>
                </mxCell>
                <mxCell id="332" value="crate: trust-dns-resolver" style="rounded=0;whiteSpace=wrap;html=1;fontSize=11;fontFamily=Verdana;fontStyle=2;strokeWidth=2;" parent="1" vertex="1">
                    <mxGeometry x="320" y="260" width="120" height="30" as="geometry"/>
                </mxCell>
                <mxCell id="333" value="Apply MX-host-specific normalisation rules" style="rounded=0;whiteSpace=wrap;html=1;fontSize=12;fontFamily=Verdana;fontStyle=1;strokeWidth=2;" parent="1" vertex="1">
                    <mxGeometry x="640" y="200" width="120" height="60" as="geometry"/>
                </mxCell>
                <mxCell id="334" value="Invalid email format error" style="rounded=0;whiteSpace=wrap;html=1;fontSize=12;fontFamily=Verdana;fontStyle=1;strokeWidth=2;fillColor=#a20025;fontColor=#ffffff;strokeColor=#6F0000;" parent="1" vertex="1">
                    <mxGeometry x="320" y="140" width="120" height="40" as="geometry"/>
                </mxCell>
                <mxCell id="336" value="DNS lookup error" style="rounded=0;whiteSpace=wrap;html=1;fontSize=12;fontFamily=Verdana;fontStyle=1;strokeWidth=2;fillColor=#a20025;fontColor=#ffffff;strokeColor=#6F0000;" parent="1" vertex="1">
                    <mxGeometry x="480" y="140" width="120" height="40" as="geometry"/>
                </mxCell>
                <mxCell id="342" value="Technical error: MX host existing but unknown" style="rounded=0;whiteSpace=wrap;html=1;fontSize=12;fontFamily=Verdana;fontStyle=1;strokeWidth=2;fillColor=#f0a30a;fontColor=#000000;strokeColor=#BD7000;" parent="1" vertex="1">
                    <mxGeometry x="640" y="120" width="120" height="60" as="geometry"/>
                </mxCell>
            </root>
        </mxGraphModel>
    </diagram>
</mxfile>